Home - Statistical Learning Project
…
To understand my analysis, it’s also important to have some background knowledge about education systems, student performance metrics, and social factors that influence learning. In Portugal, and for this data in particular the target attribute G3 has a strong correlation with attributes G2 and G1. This occurs because G3 is the final year grade (issued at the 3rd trimester), while G1 and G2 correspond to the 1st and 2nd trimester grades. It is more difficult to predict G3 without G1 and G2. Grades are typically on a 0–20 scale, with 10 as the minimum passing mark. Compared to here in the U.S. high school years are generally sectioned into semesters and students receive letter grades A, B, C, D, or F.

Throughout this process I will refer to student performance, which describes how well a student meets academic benchmarks measured through their G3 grades.

Socioeconomic background refers to an individual’s or family’s economic and social position relative to others, based on factors like income, education level, and occupation. Socioeconomic factors and parental education levels may have different impacts due to cultural and systemic differences.

data <- readr::read_csv(here::here("student-por.csv"))
data

# A tibble: 649 × 33
   school sex     age address famsize Pstatus  Medu  Fedu Mjob     Fjob   reason
   <chr>  <chr> <dbl> <chr>   <chr>   <chr>   <dbl> <dbl> <chr>    <chr>  <chr> 
 1 GP     F        18 U       GT3     A           4     4 at_home  teach… course
 2 GP     F        17 U       GT3     T           1     1 at_home  other  course
 3 GP     F        15 U       LE3     T           1     1 at_home  other  other 
 4 GP     F        15 U       GT3     T           4     2 health   servi… home  
 5 GP     F        16 U       GT3     T           3     3 other    other  home  
 6 GP     M        16 U       LE3     T           4     3 services other  reput…
 7 GP     M        16 U       LE3     T           2     2 other    other  home  
 8 GP     F        17 U       GT3     A           4     4 other    teach… home  
 9 GP     M        15 U       LE3     A           3     2 services other  home  
10 GP     M        15 U       GT3     T           3     4 other    other  home  
# ℹ 639 more rows
# ℹ 22 more variables: guardian <chr>, traveltime <dbl>, studytime <dbl>,
#   failures <dbl>, schoolsup <chr>, famsup <chr>, paid <chr>,
#   activities <chr>, nursery <chr>, higher <chr>, internet <chr>,
#   romantic <chr>, famrel <dbl>, freetime <dbl>, goout <dbl>, Dalc <dbl>,
#   Walc <dbl>, health <dbl>, absences <dbl>, G1 <dbl>, G2 <dbl>, G3 <dbl>
…
Since there is no missing data it does not makes sense to remove or impute any missing data.

student <- data |> 
  select(Pstatus, Fedu, Medu, guardian, studytime, famsup, G1, G2, G3)

student <- student |>
  mutate(
    Pstatus = as.factor(Pstatus),
    guardian = as.factor(guardian),
    studytime = as.factor(studytime),
    famsup = as.factor(famsup)
  )
student

# A tibble: 649 × 9
   Pstatus  Fedu  Medu guardian studytime famsup    G1    G2    G3
   <fct>   <dbl> <dbl> <fct>    <fct>     <fct>  <dbl> <dbl> <dbl>
 1 A           4     4 mother   2         no         0    11    11
 2 T           1     1 father   2         yes        9    11    11
 3 T           1     1 mother   2         no        12    13    12
 4 T           2     4 mother   3         yes       14    14    14
 5 T           3     3 father   2         yes       11    13    13
 6 T           3     4 mother   2         yes       12    12    13
 7 T           2     2 mother   2         no        13    12    13
 8 A           4     4 mother   2         yes       10    13    13
 9 A           2     3 mother   2         yes       15    16    17
10 T           4     3 mother   2         yes       12    12    13
# ℹ 639 more rows
…
