Home - Statistical Learning Project
…
set.seed(180)
student_split <- initial_split(student, prop = 0.80)  #splitting data  (random sample, 80%)
student_train_tidy <- training(student_split)
student_test_tidy <- testing(student_split)

student_train_tidy |>
  miss_var_summary()

# A tibble: 33 × 3
   variable n_miss pct_miss
   <chr>     <int>    <num>
 1 school        0        0
 2 sex           0        0
 3 age           0        0
 4 address       0        0
 5 famsize       0        0
 6 Pstatus       0        0
 7 Medu          0        0
 8 Fedu          0        0
 9 Mjob          0        0
10 Fjob          0        0
# ℹ 23 more rows
…
